@0
MOV RIGHT, ACC
MOV ACC, RIGHT

@1
MOV UP, ACC
MOV ACC, LEFT
# A - B
SUB RIGHT
MOV ACC, DOWN
MOV LEFT, RIGHT

@2
MOV UP, ACC
MOV ACC, LEFT
# B - A
SUB LEFT
MOV ACC, DOWN

@3


@4


@5
MOV UP, DOWN

@6
MOV UP, DOWN

@7


@8
MOV UP, DOWN

@9
MOV UP, DOWN

@10

