@0


@1
MOV UP, RIGHT

@2
LOOP:
MOV UP, ACC
JGZ MORE
JEZ ADD
MOV RIGHT, NIL
MOV LEFT, DOWN
JMP LOOP
MORE:
MOV LEFT, NIL
MOV RIGHT, DOWN
JMP LOOP
ADD:
MOV RIGHT, ACC
ADD LEFT
MOV ACC, DOWN

@3
MOV UP, LEFT

@4


@5


@6
MOV UP, DOWN

@7


@8


@9
MOV UP, DOWN

@10

