@0


@1
MOV UP, ACC
MOV ACC, RIGHT

@2
MOV LEFT, ACC
MOV ACC, DOWN
SWP
MOV UP, ACC
MOV ACC, DOWN
MOV ACC, DOWN
SWP
MOV ACC, DOWN
#A,B THEN B, A

@3


@4


@5


@6
LOOP:
MOV UP, ACC #A
SUB UP #A-B
JGZ BIGA
JMP BIGB
BIGA:
MOV UP, DOWN
MOV UP, DOWN
JMP LOOP
BIGB:
MOV UP, ACC
SAV
MOV UP, DOWN
SWP
MOV ACC, DOWN

@7


@8


@9
MOV UP, DOWN
MOV UP, DOWN
MOV NIL, DOWN

@10

