@0


@1
MOV UP, ACC
MOV ACC, RIGHT

@2
MOV LEFT, ACC
MOV ACC, DOWN
MOV UP, ACC
MOV ACC, DOWN
MOV ACC, DOWN
#A,B, B DOWN

@3


@4


@5


@6
LOOP:
MOV UP, ACC #A
SAV
SUB UP #B1
JGZ BIGA
JMP BIGB
BIGA:
MOV UP, DOWN#B2
SWP
MOV ACC, DOWN
JMP LOOP
BIGB: SWP
MOV ACC, DOWN
MOV UP, DOWN#B2

@7


@8


@9
MOV UP, DOWN
MOV UP, DOWN
MOV NIL, DOWN

@10

